<?xml version="1.0"?>
<svg xmlns="http://www.w3.org/2000/svg" xmlns:xlink="http://www.w3.org/1999/xlink" version="1.1" id="Capa_1" x="0px" y="0px" viewBox="0 0 44 44" style="enable-background:new 0 0 44 44;" xml:space="preserve" width="30px" height="30px" class=""><g><g>
	<path d="M5.941,20h32.117C41.335,20,44,17.309,44,14s-2.665-6-5.941-6H5.941C2.665,8,0,10.691,0,14S2.665,20,5.941,20z M5.941,10   h32.117C40.195,10,42,11.832,42,14s-1.805,4-3.941,4H5.941C3.805,18,2,16.168,2,14S3.805,10,5.941,10z" data-original="#000000" class="" data-old_color="#000000" fill="#D8232A"/>
	<path d="M38.059,24H5.941C2.665,24,0,26.691,0,30s2.665,6,5.941,6h32.117C41.335,36,44,33.309,44,30S41.335,24,38.059,24z    M38.059,34H5.941C3.805,34,2,32.168,2,30s1.805-4,3.941-4h32.117C40.195,26,42,27.832,42,30S40.195,34,38.059,34z" data-original="#000000" class="" data-old_color="#000000" fill="#D8232A"/>
</g></g> </svg>
